<?xml version="1.0" encoding="UTF-8"?>
<svg width="16px" height="16px" viewBox="0 0 16 16" xmlns="http://www.w3.org/2000/svg">
 <path d="m3 0c-1.6602 0-3 1.3398-3 3v7c0 1.6602 1.3398 3 3 3h10c1.6602 0 3-1.3398 3-3v-7c0-1.6602-1.3398-3-3-3zm0 2h10c0.55469 0 1 0.44531 1 1v7c0 0.55469-0.44531 1-1 1h-10c-0.55469 0-1-0.44531-1-1v-7c0-0.55469 0.44531-1 1-1zm2 12c-1.1055 0-2 0.89453-2 2h10c0-1.1055-0.89453-2-2-2z" fill="#2e3436"/>
</svg>
